{
  "printItems": false,
  "assetAccount": {
    "internalId": "120",
    "name": "Inventory Asset"
  },
  "availableToPartners": false,
  "isInactive": false,
  "excludeFromSitemap": false,
  "isSpecialWorkOrderItem": false,
  "autoPreferredStockLevel": true,
  "offerSupport": false,
  "billExchRateVarianceAcct": {
    "internalId": "152",
    "name": "5097 Bill Exchange Rate Variance"
  },
  "billPriceVarianceAcct": {
    "internalId": "151",
    "name": "5096 Bill Price Variance"
  },
  "enforceMinQtyInternally": true,
  "useMarginalRates": false,
  "gainLossAccount": {
    "internalId": "153",
    "name": "5091 Inventory Transfer Price Gain / Loss"
  },
  "autoReorderPoint": true,
  "roundUpAsComponent": false,
  "subsidiaryList": {
    "recordRef": [
      {
        "internalId": "3",
        "name": "Honeycomb Holdings Inc."
      }
    ]
  },
  "useComponentYield": false,
  "includeChildren": false,
  "incomeAccount": {
    "internalId": "55",
    "name": "4000 Sales"
  },
  "costEstimateType": {
    "value": "_averageCost"
  },
  "prodPriceVarianceAcct": {
    "internalId": "165",
    "name": "5093 Build Price Variance"
  },
  "purchasePriceVarianceAcct": {
    "internalId": "164",
    "name": "5092 Purchase Price Variance"
  },
  "weight": 0,
  "taxSchedule": {
    "internalId": "1",
    "name": "S1"
  },
  "scrapAcct": {
    "internalId": "177",
    "name": "5101 Mfg Scrap"
  },
  "cogsAccount": {
    "internalId": "121",
    "name": "Cost of Goods Sold"
  },
  "itemId": "Sample Assembly Churros",
  "isDonationItem": false,
  "onSpecial": false,
  "effectiveBomControl": {
    "value": "_effectiveDate"
  },
  "autoLeadTime": true,
  "weightUnit": {
    "value": "_lb"
  },
  "translationsList": {
    "translation": [
      {
        "language": "French (France)",
        "locale": {
          "value": "_frenchFrance"
        }
      }
    ],
    "replaceAll": false
  },
  "matchBillToReceipt": false,
  "overallQuantityPricingType": {
    "value": "_byLineQuantity"
  },
  "isOnline": false,
  "costCategory": {
    "internalId": "3",
    "name": "Default"
  },
  "memberList": {
    "itemMember": [
      {
        "item": {
          "internalId": "387",
          "name": "ACC00001"
        },
        "quantity": 1,
        "memberDescr": "400 Watt Power Supply",
        "lineNumber": 1
      }
    ],
    "replaceAll": true
  },
  "showDefaultDonationAmount": false,
  "prodQtyVarianceAcct": {
    "internalId": "166",
    "name": "5094 Build Quantity Variance"
  },
  "useBins": false,
  "dontShowPrice": false,
  "buildEntireAssembly": false,
  "shipIndividually": false,
  "outOfStockBehavior": {
    "value": "_default"
  },
  "supplyReplenishmentMethod": {
    "internalId": "REORDER_POINT",
    "name": "Reorder Point"
  },
  "seasonalDemand": false,
  "billQtyVarianceAcct": {
    "internalId": "150",
    "name": "5095 Bill Quantity Variance"
  },
  "customForm": {
    "internalId": "44",
    "name": "Z -Manufactured Item"
  },
  "trackLandedCost": false,
  "costingMethodDisplay": "Standard",
  "wipAcct": {
    "internalId": "163",
    "name": "5100 Mfg WIP"
  },
  "locationsList": {
    "locations": [
      {
        "quantityAvailable": 0,
        "locationId": {
          "internalId": "2"
        },
        "supplyType": {
          "internalId": "BUILD",
          "name": "Build"
        },
        "isWip": false,
        "location": "2",
        "costingLotSize": 1,
        "location_display": "01: San Francisco"
      },
      {
        "quantityAvailable": 0,
        "locationId": {
          "internalId": "5"
        },
        "supplyType": {
          "internalId": "BUILD",
          "name": "Build"
        },
        "isWip": false,
        "location": "5",
        "costingLotSize": 1,
        "location_display": "01: San Francisco : QA Hold"
      },
      {
        "quantityAvailable": 0,
        "locationId": {
          "internalId": "4"
        },
        "supplyType": {
          "internalId": "BUILD",
          "name": "Build"
        },
        "isWip": false,
        "location": "4",
        "costingLotSize": 1,
        "location_display": "01: San Francisco : Receiving Insp."
      },
      {
        "quantityAvailable": 0,
        "locationId": {
          "internalId": "1"
        },
        "supplyType": {
          "internalId": "BUILD",
          "name": "Build"
        },
        "isWip": false,
        "location": "1",
        "costingLotSize": 1,
        "location_display": "02: Boston"
      },
      {
        "quantityAvailable": 0,
        "locationId": {
          "internalId": "3"
        },
        "supplyType": {
          "internalId": "BUILD",
          "name": "Build"
        },
        "isWip": false,
        "location": "3",
        "costingLotSize": 1,
        "location_display": "02: Boston : Overstock"
      },
      {
        "quantityAvailable": 0,
        "locationId": {
          "internalId": "6"
        },
        "supplyType": {
          "internalId": "BUILD",
          "name": "Build"
        },
        "isWip": false,
        "location": "6",
        "costingLotSize": 1,
        "location_display": "Denver"
      },
      {
        "quantityAvailable": 0,
        "locationId": {
          "internalId": "11"
        },
        "supplyType": {
          "internalId": "BUILD",
          "name": "Build"
        },
        "isWip": false,
        "location": "11",
        "costingLotSize": 1,
        "location_display": "Denver : 1"
      },
      {
        "quantityAvailable": 0,
        "locationId": {
          "internalId": "7"
        },
        "supplyType": {
          "internalId": "BUILD",
          "name": "Build"
        },
        "isWip": false,
        "location": "7",
        "costingLotSize": 1,
        "location_display": "Denver : Den - test"
      },
      {
        "quantityAvailable": 0,
        "locationId": {
          "internalId": "8"
        },
        "supplyType": {
          "internalId": "BUILD",
          "name": "Build"
        },
        "isWip": false,
        "location": "8",
        "costingLotSize": 1,
        "location_display": "Denver : Denver"
      },
      {
        "quantityAvailable": 0,
        "locationId": {
          "internalId": "12"
        },
        "supplyType": {
          "internalId": "BUILD",
          "name": "Build"
        },
        "isWip": false,
        "location": "12",
        "costingLotSize": 1,
        "location_display": "Denver : Denver : Denver"
      },
      {
        "quantityAvailable": 0,
        "locationId": {
          "internalId": "9"
        },
        "supplyType": {
          "internalId": "BUILD",
          "name": "Build"
        },
        "isWip": false,
        "location": "9",
        "costingLotSize": 1,
        "location_display": "Denver : Test"
      },
      {
        "quantityAvailable": 0,
        "locationId": {
          "internalId": "10"
        },
        "supplyType": {
          "internalId": "BUILD",
          "name": "Build"
        },
        "isWip": false,
        "location": "10",
        "costingLotSize": 1,
        "location_display": "Test"
      }
    ],
    "replaceAll": false
  },
  "unbuildVarianceAccount": {
    "internalId": "154",
    "name": "5098 Unbuild Variance"
  },
  "sitemapPriority": {
    "value": "_auto"
  }
}
