{
  "isFulfillable": true,
  "availableToPartners": false,
  "itemVendorList": {
    "itemVendor": [
      {
        "preferredVendor": false,
        "vendor": {
          "internalId": "1552",
          "name": "Amazon"
        },
        "subsidiary": "1"
      }
    ],
    "replaceAll": true
  },
  "isInactive": false,
  "overallQuantityPricingType": {
    "value": "_byLineQuantity"
  },
  "excludeFromSitemap": false,
  "offerSupport": false,
  "isOnline": false,
  "costCategory": {
    "internalId": "3",
    "name": "Default"
  },
  "showDefaultDonationAmount": false,
  "generateAccruals": false,
  "enforceMinQtyInternally": true,
  "dontShowPrice": false,
  "useMarginalRates": false,
  "shipIndividually": false,
  "outOfStockBehavior": {
    "value": "_default"
  },
  "isSpecialOrderItem": false,
  "subsidiaryList": {
    "recordRef": [
      {
        "internalId": "3",
        "name": "Honeycomb Holdings Inc."
      }
    ]
  },
  "includeChildren": false,
  "incomeAccount": {
    "internalId": "55",
    "name": "4000 Sales"
  },
  "costEstimateType": {
    "value": "_lastPurchasePrice"
  },
  "customForm": {
    "internalId": "-210",
    "name": "Standard Non-Inventory Part Form"
  },
  "copyDescription": false,
  "taxSchedule": {
    "internalId": "1",
    "name": "S1"
  },
  "isDropShipItem": false,
  "itemId": "Sample Churros Item",
  "isDonationItem": false,
  "onSpecial": false,
  "expenseAccount": {
    "internalId": "83",
    "name": "6130 Miscellaneous Expense"
  },
  "sitemapPriority": {
    "value": "_auto"
  },
  "translationsList": {
    "translation": [
      {
        "language": "French (France)",
        "locale": {
          "value": "_frenchFrance"
        }
      }
    ],
    "replaceAll": true
  }
}
