{
  "assetAccount":{
    "internalId":"120",
    "name":"Inventory Asset"
  },
  "autoPreferredStockLevel":true,
  "offerSupport":false,
  "saleUnit":{
    "internalId":"8",
    "name":"Packages"
  },
  "billExchRateVarianceAcct":{
    "internalId":"152",
    "name":"5097 Bill Exchange Rate Variance"
  },
  "billPriceVarianceAcct":{
    "internalId":"151",
    "name":"5096 Bill Price Variance"
  },
  "useMarginalRates":false,
  "gainLossAccount":{
    "internalId":"153",
    "name":"5091 Inventory Transfer Price Gain / Loss"
  },
  "weightUnits":"per Pkg",
  "autoReorderPoint":true,
  "roundUpAsComponent":false,
  "isSpecialOrderItem":false,
  "subsidiaryList":{
    "recordRef":[
      {
        "internalId":"1",
        "name":"Honeycomb Holdings Inc. : Honeycomb Mfg."
      }
    ]
  },
  "incomeAccount":{
    "internalId":"55",
    "name":"4000 Sales"
  },
  "purchasePriceVarianceAcct":{
    "internalId":"164",
    "name":"5092 Purchase Price Variance"
  },
  "taxSchedule":{
    "internalId":"1",
    "name":"S1"
  },
  "vendorName":"Churros",
  "unitsType":{
    "internalId":"5",
    "name":"Package"
  },
  "stockUnit":{
    "internalId":"8",
    "name":"Packages"
  },
  "cogsAccount":{
    "internalId":"121",
    "name":"Cost of Goods Sold"
  },
  "purchaseUnit":{
    "internalId":"8",
    "name":"Packages"
  },
  "itemId":"The Churros",
  "isDonationItem":false,
  "onSpecial":false,
  "purchaseDescription":"Churros Desc",
  "costEstimateUnits":"per Pkg",
  "autoLeadTime":true,
  "displayName":"Churros Product",
  "isOnline":false,
  "handlingCostUnits":"per Pkg",
  "costCategory":{
    "internalId":"3",
    "name":"Default"
  },
  "showDefaultDonationAmount":false,
  "useBins":false,
  "dontShowPrice":false,
  "department":{
    "internalId":"4",
    "name":"Marketing"
  },
  "shipIndividually":false,
  "upcCode":"000MEEVIS",
  "quantityReorderUnits":"Quantity On Hand, Reorder Point, Quantity On Order, and Quantity Committed are in Pkg",
  "supplyReplenishmentMethod":{
    "internalId":"REORDER_POINT",
    "name":"Reorder Point"
  },
  "cost":1000,
  "seasonalDemand":false,
  "billQtyVarianceAcct":{
    "internalId":"150",
    "name":"5095 Bill Quantity Variance"
  },
  "customForm":{
    "internalId":"144",
    "name":"Custom Inventory Part Form"
  },
  "trackLandedCost":false,
  "costingMethodDisplay":"Standard",
  "minimumQuantityUnits":"Pkg",
  "locationsList":{
    "locations":[
      {
        "locationId":{
          "internalId":"2"
        },
        "location":"2"
      },
      {
        "locationId":{
          "internalId":"5"
        },
        "location":"5"
      },
      {
        "locationId":{
          "internalId":"4"
        },
        "location":"4"
      },
      {
        "locationId":{
          "internalId":"1"
        },
        "location":"1"
      },
      {
        "locationId":{
          "internalId":"3"
        },
        "location":"3"
      }
    ],
    "replaceAll":false
  },
  "preferredLocation":{
    "internalId":"2",
    "name":"01: San Francisco"
  },
  "isDropShipItem":false,
  "shippingCostUnits":"per Pkg",
  "safetyStockLevelUnits":"Pkg",
  "location":{
    "internalId":"1",
    "name":"02: Boston"
  },
  "costUnits":"per Pkg"
}
