{
  "is1099Eligible":false,
  "workCalendar":{
    "internalId":"1",
    "name":"Default Work Calendar"
  },
  "subsidiary":{
    "internalId":"1",
    "name":"Honeycomb Mfg."
  },
  "companyName":"Churros company",
  "isPerson":false,
  "isJobResourceVend":false,
  "terms":{
    "internalId":"1",
    "name":"Net 15"
  },
  "currency":{
    "internalId":"1",
    "name":"USA"
  },
  "category":{
    "internalId":"3",
    "name":"Tax agency"
  },
  "giveAccess":false
}
