{
	"ProfileId": "12",
	"UserName": "test",
	"Email": "test@gmail.com",
	"FirstName": "test",
	"PostalCode": "12345",
	"Title": "test",
	"City": "test",
	"MobilePhone": "123456789",
	"Name": "test",
	"State": "test",
	"Alias": "test",
	"Phone": "12345",
	"Street": "test",
	"Country": "test",
	"id": 21,
	"LastName": "test",
	"EmployeeId": "123"
}
