{
  "lastName": "ChurrosTest",
  "title": "VP Sales",
  "employeeStatus": {
    "internalId": "3",
    "name": "Regular - Full Time"
  },
  "currency": {
    "internalId": "1",
    "name": "USA"
  },
  "email": "churros@cloud-elements.com",
  "approver": {
    "internalId": "1302",
    "name": "Mark Jones"
  },
  "initials": "RT",
  "workCalendar": {
    "internalId": "1",
    "name": "Default Work Calendar"
  },
  "birthDate": -438278400000,
  "subsidiary": {
    "internalId": "1",
    "name": "Honeycomb Mfg."
  },
  "firstName": "churros",
  "employeeType": {
    "internalId": "1",
    "name": "Officer"
  },
  "phone": "650-555-9788",
  "location": {
    "internalId": "2",
    "name": "01: San Francisco"
  },
  "supervisor": {
    "internalId": "1302",
    "name": "Mark Jones"
  }
}
