{
  "phone": "888-8888",
  "manager": "",
  "location": "",
  "street": "123 Test Street",
  "city": "Denver",
  "web_service_access_only": "false",
  "vip": "false",
  "first_name": "Claude",
  "middle_name": "P.",
  "country": "US",
  "user_name": "claude.elements",
  "email": "claude@cloud-elements.com",
  "roles": "itil",
  "last_name": "Elements",
  "active": "true",
  "state": "CO",
  "zip": "80203"
}
