{
  "lists": {
    "vendorName": "lists",
    "fields": [{
      "path": "id",
      "vendorPath": "id"
    }]
  },
  "campaigns": {
    "vendorName": "campaigns",
    "fields": [{
      "path": "id",
      "vendorPath": "id"
    }]
  }
}
