{
  "salesRep": {
    "internalId": "1008",
    "name": "Mary Redding"
  },
  "receivablesAccount": {
    "internalId": "-10",
    "name": "Use System Preference"
  },
  "isPerson": false,
  "billPay": false,
  "accessRole": {
    "internalId": "14",
    "name": "Customer Center"
  },
  "currency": {
    "internalId": "1",
    "name": "USA"
  },
  "email": "churros@cloud-elements.com",
  "companyName": "Churros Test Lead Company",
  "giveAccess": false,
  "leadSource": {
    "internalId": "100010",
    "name": "Summer End Promotions"
  },
  "subsidiary": {
    "internalId": "1",
    "name": "Honeycomb Mfg."
  },
  "shipComplete": false,
  "phone": "913-555-0508",
  "entityStatus": {
    "internalId": "6",
    "name": "LEAD-New"
  }
}