{
    "line": [
        {
            "amount": 500,
            "detailType": "JOURNAL_ENTRY_LINE_DETAIL",
            "description": "2 Wood doors stolen from job site.Atul JE",
            "journalEntryLineDetail": {
                "postingType": "DEBIT",
                "entity": {
                    "type": "CUSTOMER",
                    "entityRef": {
                        "value": "37"
                    }
                },
                "accountRef": {
                    "value": "79"
                },
                "classRef": {
                    "value": "3000000000000593298"
                }
            }
        },
        {
            "amount": 500,
            "detailType": "JOURNAL_ENTRY_LINE_DETAIL",
            "description": "Exterior - Exterior Inventory Adjustment Atul JE",
            "journalEntryLineDetail": {
                "postingType": "CREDIT",
                "accountRef": {
                    "value": "62"
                },
                "classRef": {
                    "value": "3000000000000593298"
                }
            }
        }
    ],
    "privateNote": "Inventory Adjustment for Atul JE",
    "totalAmt": 500,
    "docNumber": "AtulRef2"
}
