{
  "Call Start Time": "2016-01-19 10:53:00",
  "description": "Had a call with a robot",
  "Call Purpose": "Administrative",
  "Billable": "false",
  "Call Duration": "15:00",
  "subject": "Test Call",
  "Call Type": "Outbound",
  "Call Status": "Attended Dialled"
}