{
  "lastName": "ChurrosDoNotUse",
  "subsidiary": {
    "internalId": "1",
    "name": "Honeycomb Mfg."
  },
  "firstName": "El Chappo2",
  "phone": "650-555-9788",
  "altEmail": "chudonotuse@cloud-elements.com",
  "email": "chudonotuse@cloud-elements.com",
  "supervisor": {
    "internalId": "1302",
    "name": "Mark Jones"
  }
}
